Verteilte Dateien
…
  smmp_id depthpos node_id   x_smmp  y_smmp z_surface install_year
1       3        b      76 598783.3 5662778    367.04         2014
2       3        t      76 598783.3 5662778    367.04         2014
3       6        b       8 598788.4 5662805    364.65         2014
4       6        t       8 598788.4 5662805    364.65         2014
5      10        b      76 598793.6 5662774    367.33         2014
6      10        t      76 598793.6 5662774    367.33         2014

Alternativ zu read.csv(), das ein Objekt data.frame erzeugt, dieser Datensatz kann direkt als tibble importiert werden.

library(readr)
Boden <- read_csv("data/soil_properties.csv")
Boden

# A tibble: 420 × 24
   smmp_id depthpos node_id  x_smmp   y_smmp z_surface install_year next_tree_id
     <dbl> <chr>      <dbl>   <dbl>    <dbl>     <dbl>        <dbl>        <dbl>
 1       3 b             76 598783. 5662778.      367.         2014         1098
 2       3 t             76 598783. 5662778.      367.         2014         1098
 3       6 b              8 598788. 5662805.      365.         2014          102
 4       6 t              8 598788. 5662805.      365.         2014          102
 5      10 b             76 598794. 5662774.      367.         2014          171
 6      10 t             76 598794. 5662774.      367.         2014          171
 7      13 b              6 598796. 5662808.      364.         2014           26
 8      13 t              6 598796. 5662808.      364.         2014           26
 9      15 b             45 598804. 5662757.      369.         2014          243
10      15 t             45 598804. 5662757.      369.         2014          243
# ℹ 410 more rows
# ℹ 16 more variables: next_tree_dist <dbl>, tree_pos <chr>, smmp_type <chr>,
#   profiledepth_cm <dbl>, sampling_date_core <chr>, fc_vol_perc <dbl>,
#   ks_m_s <dbl>, bulkdens_kg_m3 <dbl>, porosity_sat_vol_perc <dbl>,
#   porosity_calc_vol_perc <dbl>, gravel_grav_perc <dbl>, sand_grav_perc <dbl>,
#   silt_grav_perc <dbl>, clay_grav_perc <dbl>, textureclass <chr>,
#   textureclass_ger <chr>
…
